TE_NUMBER,1,10
FILLER,11,10
EVENT_NO,21,10
FILLER,31,10
EVENT_TYPE,41,2
REC_DOC_NO,43,9
PROCESSED_CODE,52,2
UNK,54,6
UNK,60,2
UNK,62,12
DOC_TYPE_CD,74,3
DOC_VALUE,77,10
UNK,87,10
REC_DATE,97,8
REC_BOOKPAGE,105,9
DOC_TAXAMT,114,9
PCOR_PURCHASE_AM,123,11
UNK,134,11
UNK,145,10
UNK,155,8
PCOR_RECEIVED_IN,163,1
TRANSFEROR,164,44
TRANSFEREE,208,44
MULTI_TRANSFEREE,252,1
MULTI_TRANSFEROR,253,1
MULTI_PARCEL_SAL,254,1
TRANSFER_DATE,255,8
DEATH_DATE,263,8
LEASE_START_DATE,271,8
LEASE_TERM_YEARS,279,3
LEASE_YEARS_REM,282,3
UNK,285,1
UNK,286,1
SALE_CODE,287,1
PERCENT_TRANSFER,288,6
TRANSFER_TYPE,294,1
APN,295,8
UNK,303,1
CRLF,304,2
