Notes:

EXCDTBL  DC   0CL4' '
         DC    C'1',C'WEL'
         DC    C'2',C'CH '
         DC    C'3',C'COL'
         DC    C'4',C'OTH'
         DC    C'5',C'VET'
         DC    C'6',C'SCH'
         DC    X'FF',C'OTH'
*
*
CD2FRCTB DC   0CL4' '             TABLE OF FRACTION CODES TO FRACTIONS
         DC    C'0BLK'
         DC    C'11/4'
         DC    C'21/3'
         DC    C'31/2'
         DC    C'42/3'
         DC    C'53/4'
         DC    C'61/8'
         DC    C'73/8'
         DC    C'85/8'
         DC    C'97/8'
         DC    X'FF'
*
*                  STREET SUFFIX CORRECTION/UNOBFUSCATION TABLE
*
ABRVTBL  DC   0CL7' '
         DC    C'CL',C'CIR  '
         DC    C'PL',C'PLACE'
         DC    C'TL',C'TRAIL'
         DC    C'TR',C'TER  '
         DC    X'FF'

Names:
   - If name2 has an asterisk in pos. 1, put name1 in seller, put name2 in name1

SLAFSKY JOHN AND ROSENBERG AMY TRUSTEE     7277525
STARBIRD-VALENTI MICHAEL AND MIA           9625646
CARMODY PATRICE ET AL                      8896276*CARMODY PATRICE AND RICHARD J ET AL
WAPENSKY JOHN A TRUSTEE & ET AL            6273318WAPENSKY TANYA J TRUSTEE
ELIZABETH F. DE LEEUW TRUST                4358346
GUISLIN JOHN A                             6851276GUISLIN RAMONA E AND RIDDLE RAMONA E
PRINCE HAROLD B JR AND GODFREY CAROLYN E   9883988
SCHWAN JOHN E AND MADGETT-SCHWAN KIMBERLY T8399876
DAVIS CHARLES R AND NGUYEN LIEN TRUSTEE    4686440
KRAMER MARGUERITE M ET AL                  4231566KRAMER ALAN H
LEVETT DENNIS AND KAREN L                  5389051LEVETT DENNIS A
BAKER ROBERT H ET AL                       6365074IBARRA AUDRA S
STERBENC EDWIN R AND FITZGERALD CATHERINE A3321943
MAC LACHLAN JEAN E ET AL                   2554327MAC LACHLAN JEAN E TRUSTEE
PESCHCKE-KOEDT RENE TRUSTEE                6066736PESCHCKE-KOEDT DITTER TRUSTEE
KEARNEY ANNE L                             8822423*KILANI MOHAMED A
2004 YAGHMAIE/BAGHERI REVOC TR             8243115
ANGELES ALEXANDRA TRUSTEE                  8785918*ANGELES ALEXANDRA X
MARY ELLEN ERIKSON TR 1/31/98 UNDER        5959154
GROMME C S                                 8847185
LEHRBERG RICHARD S.F. AND CATHERINE F TRUST4104892
BEAN JAMES T AND O'SULLIVAN CHRISTINE A    7801239
S C V W D                                  3601022
PINSKER ROBERT H AND SUSAN K TRUSTEE & ET A7265106
MARINO FRANK J JR AND LINDA M TRUSTEE & ET 7422160
DOLAN A. BARR                              5165530
MCKEE ROBERTA G TRUSTEE                    1554026SURVIVOR'S TRUST U/D /T 2-18-86
JOHNSON FRANKLIN P JR AND CATHERINE H TRUST7241324
WU DENNIS HSUEH-HUANG AND SU FLORENCE CHIA-7037405
DIETRICH DAVID AND KRATT DIETRICH ELLEN TRU5110272
BARLEY LAUREN AND SCHLEMMER RANDAL J TRUSTE8000315
HARWOOD JOSEPH D AND KOCIALSKI CYNTHIA TRUS7323374
BROAD A.S. AND CAROL TRUSTEE               3689077
FORTENBAUGH PETER D AND LEE BETTY P.J.     4102758
4 BLOCKS AWAY LLC                          8562080
KRAUS FAMILY 1989 TRUST                    0367341KRAUS ROBERT E AND MARIANNA TRUSTEE
BARANOFF FAMILY REV INTV TR 9/18/92        1569323
KOHATSU FAMILY REVOC INTV TRT UDT 6/26/92  1450263
EVANS FAMILY REV INTVIV TR 9/10/91         1067486
LORETTA M GRENAT REVOC INTV TR 0710/00     1711002
RIVERA LUIS                                       C/O ORIGEN FIANANCIAL LLC
HAWKINS DAVID                                     JOANNE   HUMBERTO GONZALEZ
SMITH WALTER A / TERESA
MENEELY SCOTT                           R/O
PACIFIC GAS ELECTRIC LEASE/POSSESSORY INTER1043872MOUNTAIN VIEW CITY OF
GAS RECOVERY PARTNERS 1984. LEASE          0004855
TODD DOROTHY GALE LIVING TRUST 082595 THE
NGUYEN BICHNGOC PHI AND HA LUAN NGOC
MCKEOWN MICHAEL T AND DONNA D TRUSTEE      5028396MICHAEL T & DONNA D MCKEWON 1999 TRUST 10/


DocType found in GrGr          Count
ABAND HOMESTEAD                 4
ABEA                            1
ABSTRACT OF JUDGMENT/ABSTRACT   2
AFFIDAVIT LIEN JUSTIFY BAIL/DE  1
AFFIDAVIT OF DEATH WITH OTHER   2
AFFIDAVIT OF DEATH/AFFIDAVIT D  11
AGREEMENT                       15
AMEA                            1
AMEND DEED OF TRUST             2
AMEND LIS PENDENS               1
ASAC                            14        Assign/Acceptance
ASSIGNMENT                      165
ASSIGNMENT DEED OF TRUST/MORTG  52
ATDE                            4
BOND                            1
CANCELLATION                    26
CERTIFICATE AMOUNT DUE          32046
CERTIFICATE OF COMPLETION       120
CERTIFICATE OF COMPLIANCE       1
CERTIFICATE SALE                8
CONSERVATION EASEMENT           10
CORRECTION DEED                 2763
CTDD                            2
DECLARATION HOMESTEAD           3
DEDICATION                      3
DEED                            432574
DEED OF TRUST & ASSIGNMENT OF   312
DEED OF TRUST & FIXTURE FILING  2
DEED OF TRUST,ASSIGNMENT & REQ  2
DEED OF TRUST/MORTGAGE/SECURIT  91
DEED TRUST & REQUEST NOTICE OF  2
DEED/QUITCLAIM WITH OTHER DOCU  88
DISTRIBUTION                    1
EASE                            74
EASEMENT DEED/GRANT OF EASEMEN  1593
FINANCE STATEMENT               1
GRAF                            1
LEASE                           3
LOT LINE ADJUSTMENT             2
MECHANICS/CLAIM OF LIEN         2
NOTICE                          1
NOTICE ASSESSMENT               169
NOTICE CESSATION                24
NOTICE NON RESPONSIBILITY       4
NOTICE OF BUILDING CODE/ORDINA  1
NOTICE OF COMPLETION            11353
NOTICE OF LIEN                  16
NOTICE TRUSTEE SALE             1
OPTION/CONTRACT                 1
ORDER                           1
ORDER CONVEY/SUCCESSION         1
PARTIAL NOTICE COMPLETION       1
PARTIAL RECONVEYANCE            5
POWER ATTORNEY                  164
QCDD                            27480
QEDD                            4
RECONVEYANCE                    52
RELEASE                         1
RELEASE ABSTRACT JUDGMENT       3
RELEASE LIEN                    30038
RELEASE LIS PENDENS             1
RELEASE MORTGAGE                1
REMOVAL OF INVALID LIEN         1413
REQUEST FOR NOTICE DEFAULT      15
RESCIND/RELEASE/REPLACE RESTRI  1
RESOLUTION                      2
RESTRICTION                     1
SATISFACTION JUDGMENT           2
SHERIFFS DEED EXECUTION         6
SUBORDINATION AGREEMENT (DEED   28
SUBSTITUTION OF TRUSTEE & RECO  77
SUBSTITUTION TRUSTEE            30
TRDS                            8
TRUST AGREEMENT                 2
TRUSTEES DEED                   2423
WADE                            2
