316
001,DEED,1,N,N
003,RECONVEYANCE,19,Y,Y
004,NOTICE OF COMPLETION,19,Y,Y
005,RELEASE,19,Y,Y
006,ASSIGNMENT OF DEED OF TRUST,7,Y,N
007,DEED OF TRUST,65,Y,Y
008,REQUEST FOR NOTICE,19,Y,Y
009,AGREEMENT,8,Y,Y
010,ABSTRACT OF JUDGMENT,19,Y,Y
011,AFFIDAVIT,6,Y,Y
013,ORDER,80,Y,Y
014,MORTGAGE,19,Y,Y
015,NOTICE OF ATTACHMENT,19,Y,Y
016,NOTICE OF LEVY,19,Y,Y
017,LEASE,44,Y,Y
018,SUBDIVISION MAP WITH GRANT,19,Y,Y
019,SUBDIVISION MAP,19,Y,Y
020,ASSESSMENT MAP BOUNDARY,19,Y,Y
021,ASSESSMENT MAP DIAGRAM,19,Y,Y
022,MECHANICS LIEN,46,Y,Y
024,NOTICE OF LOCATION OF MINING CLAIM,19,Y,Y
025,NOTICE OF DEFAULT,52,Y,N
026,NOTICE OF PENDING ACTION,19,Y,Y
027,PROOF OF ANNUAL LABOR,19,Y,Y
028,TRUSTEES DEED,27,Y,N
031,EASEMENT,40,Y,Y
032,ASSIGNMENT,7,Y,N
033,DECLARATION OF HOMESTEAD,19,Y,Y
034,REVOCATION OF POWER OF ATTORNEY,19,Y,Y
035,QUITCLAIM DEED,4,Y,N
036,ABANDONMENT OF HOMESTEAD,19,Y,Y
037,ACCEPTANCE OF OFFER OF DEDICATION,19,Y,Y
039,DECLARATION OF TRUST,19,Y,Y
040,AGREEMENT AMENDED,8,Y,Y
041,DECLARATION OF TRUST AMENDED,19,Y,Y
042,JUDGMENT AMENDED,19,Y,Y
043,LEASE AMENDED,44,Y,Y
044,NOTICE OF LOCATION OF MINING CLAIM AMENDED,19,Y,Y
045,ORDER AMENDED,80,Y,Y
046,PARTNERSHIP AMENDED,19,Y,Y
047,COVENANTS CONDITIONS AND RESTRICTIONS AMENDED,19,Y,Y
048,DEED OF TRUST AMENDED,65,Y,Y
049,MECHANICS LIEN AMENDED,46,Y,Y
055,BILL OF SALE,32,Y,Y
057,LIEN AMENDED,46,Y,Y
058,ASSIGNMENT OF RENTS,19,Y,Y
059,ASSUMPTION,29,Y,Y
060,BOND,19,Y,Y
062,ARTICLES OF INCORPORATION,19,Y,Y
063,ASSIGNMENT OF JUDGMENT,19,Y,Y
064,ASSIGNMENT OF LEASE,19,Y,Y
065,NOTARY BOND,19,Y,Y
068,CANCELLATION,19,Y,Y
069,CERTIFICATE,19,Y,Y
070,CERTIFICATE OF CORRECTION,19,Y,Y
072,CERTIFICATE OF DELINQUENT TAX,19,Y,Y
073,CERTIFICATE OF LIEN,19,Y,Y
075,CERTIFICATE OF REDEMPTION,19,Y,Y
076,CERTIFICATE OF SALE,19,Y,Y
077,CANCELLATION OF AGREEMENT,19,Y,Y
078,CANCELLATION OF LEASE,19,Y,Y
080,CANCELLATION OF NOTICE,19,Y,Y
081,CANCELLATION OF PARTNERSHIP,19,Y,Y
082,CANCELLATION OF RECONVEYANCE,19,Y,Y
084,CANCELLATION OF TAX DEED,19,Y,Y
085,VARIANCE AMENDED,19,Y,Y
087,CONTRACT OF SALE,11,Y,N
088,CONTRACT,19,Y,Y
090,COVENANT,1,N,N
092,DECLARATION,12,Y,Y
094,ASSIGNMENT REGARDING REAL PROPERTY,19,Y,Y
096,DEDICATION,19,Y,Y
097,DISSOLUTION OF PARTNERSHIP,19,Y,Y
098,DISCLAIMER,19,Y,Y
102,EXTENSION OF MECHANICS LIEN,46,Y,Y
103,EXTENSION OF TAX LIEN,67,Y,Y
104,FICTITIOUS DEED OF TRUST,65,Y,Y
110,JUDGMENT,19,Y,Y
111,LICENSE,19,Y,Y
112,LIEN,46,Y,Y
113,LIEN AGREEMENT,46,Y,Y
114,DISSOLUTION OF CORPORATION,19,Y,Y
115,MODIFICATION OF DEED OF TRUST,65,Y,Y
116,LETTERS OF ADMINISTRATION,19,Y,Y
117,LETTERS OF GUARDIANSHIP,19,Y,Y
118,LETTERS OF CONSERVATORSHIP,19,Y,Y
119,LETTERS OF TESTAMENTARY,19,Y,Y
120,CERTIFICATE OF MERGER,19,Y,Y
121,MODIFICATION OF ORDER,80,Y,Y
122,MISCELLANEOUS MAP,74,Y,Y
123,OFFICIAL MAP,74,Y,Y
124,PARCEL MAP,74,Y,Y
125,RECORD OF SURVEY MAP,74,Y,Y
126,STATE HIGHWAY MAP,74,Y,Y
127,MODIFICATION OF AGREEMENT,8,Y,Y
128,CERTIFICATE OF NON ATTACHMENT OF FEDERAL TAX LIEN,19,Y,Y
129,CONDOMINIUM PLAN AMENDED,19,Y,Y
130,NOTICE,19,Y,Y
131,UCC FINANCING STATEMENT,19,Y,Y
132,UCC FINANCING STATEMENT CONTINUATION,19,Y,Y
133,UCC FINANCING STATEMENT RELEASE,19,Y,Y
134,UCC FINANCING STATEMENT ASSIGNMENT,19,Y,Y
135,UCC FINANCING STATEMENT TERMINATION,19,Y,Y
136,UCC FINANCING STATEMENT AMENDMENT,19,Y,Y
137,NOTICE OF CESSATION OF LABOR,19,Y,Y
138,NOTICE OF ADDITIONAL ADVANCE UNDER DEED OF TRUST,19,Y,Y
140,NOTICE OF INTENDED TRANSFER OF ALCOHOLIC BEVERAGE LICENSE,19,Y,Y
141,NOTICE OF VIOLATION,19,Y,Y
143,OFFER OF DEDICATION,19,Y,Y
144,OPTION AGREEMENT,19,Y,Y
145,NOTICE OF TERMINATION,19,Y,Y
146,NOTICE OF CONSENT TO USE LAND,19,Y,Y
147,NOTICE OF BULK SALE,19,Y,Y
148,NOTICE OF DELINQUENCY LIEN,19,Y,Y
149,NOTICE OF FORECLOSURE SALE,19,Y,Y
150,NOTICE OF LIEN,19,Y,Y
151,NOTICE OF NON RESPONSIBILITY,19,Y,Y
152,NOTICE OF SALE BY AUCTION,19,Y,Y
161,OPTION TO PURCHASE,19,Y,Y
162,PARTNERSHIP,19,Y,Y
163,PERMIT,19,Y,Y
164,POWER OF ATTORNEY,19,Y,Y
165,GRANT OF RIGHT OF WAY,19,Y,Y
166,REASSIGNMENT,19,Y,Y
167,ANNEXATION,19,Y,Y
169,RELINQUISHMENT,19,Y,Y
170,RESCISSION,19,Y,Y
172,RESOLUTION,19,Y,Y
178,RESOLUTION RE DELINQUENT LIEN,19,Y,Y
183,RESOLUTION RE LIEN,19,Y,Y
185,RESOLUTION RE RELEASE,19,Y,Y
187,COVENANTS CONDITIONS AND RESTRICTIONS,19,Y,Y
188,REVOCATION OF DEED,19,Y,Y
189,CERTIFICATE OF LIEN AMENDED,19,Y,Y
190,RIGHT OF ENTRY,19,Y,Y
191,RIGHT OF FIRST REFUSAL,19,Y,Y
192,TRUST AGREEMENT AMENDED,19,Y,Y
194,SUBORDINATION AGREEMENT,19,Y,Y
198,TRUST AGREEMENT,19,Y,Y
199,TAX DEED,67,Y,N
200,SUBSTITUTION OF TRUSTEE,19,Y,N
201,WAIVER,19,Y,Y
202,WITHDRAWAL,19,Y,Y
204,BUILDING CONTRACT,19,Y,Y
206,SUPPLEMENTAL INDENTURE,19,Y,Y
208,REVOCATION OF COVENANTS CONDITIONS AND RESTRICTIONS,19,Y,Y
209,ANNEXATION AMENDED,19,Y,Y
210,LIEN CONTRACT,19,Y,Y
213,PUBLICATION OF DELINQUENT TAX LIST,19,Y,Y
218,DECLARATION OF HOMESTEAD AMENDED,19,Y,Y
219,LIEN AGREEMENT AMENDED,46,Y,Y
220,TRUSTEES DEED AMENDED,27,Y,N
221,NOTICE AMENDED,19,Y,Y
224,EXTENSION AGREEMENT,19,Y,Y
226,DEED AMENDED,9,Y,N
227,OPTION TO PURCHASE AMENDED,19,Y,Y
228,ORDINANCE,19,Y,Y
230,MEMORANDUM,19,Y,Y
231,TERMINATION,19,Y,Y
234,CANCELLATION OF ASSIGNMENT OF RENTS,19,Y,Y
236,NOTICE OF SALE,19,Y,Y
239,VARIANCE,19,Y,Y
241,CONTRACT AMENDED,19,Y,Y
243,NOTICE OF TRUSTEES SALE,19,Y,Y
244,MOBILEHOME INSTALLATION ON FOUNDATION SYSTEM,19,Y,Y
246,ASSIGNMENT AMENDED,7,Y,N
247,CERTIFICATE OF COMPLIANCE,19,Y,Y
248,CONDOMINIUM PLAN,19,Y,Y
250,CERTIFICATE OF TAX LIEN (TTC),19,Y,Y
251,NOTICE OF ASSESSMENT LIEN - HOMEOWNERS,19,Y,Y
253,VOLUNTARY PETITION,19,Y,Y
256,MODIFICATION OF LEASE,19,Y,Y
260,OPTION TO LEASE AGREEMENT,19,Y,Y
261,RELEASE AMENDED,19,Y,Y
262,EASEMENT AMENDED,40,Y,Y
264,ARTICLES OF INCORPORATION AMENDED,19,Y,Y
265,NOTICE OF TRUSTEES SALE AMENDED,19,Y,Y
266,QUITCLAIM DEED AMENDED,4,Y,N
267,ABANDONMENT OF EASEMENT,19,Y,Y
268,EXTENSION OF MECHANICS LIEN AMENDED,46,Y,Y
270,REVOCATION OF TRUST,19,Y,Y
272,REVOCATION,19,Y,Y
274,DECLARATION AMENDED,19,Y,Y
275,ASSIGNMENT OF MORTGAGE,19,Y,Y
278,APPLICATION FOR REGISTRATION,19,Y,Y
279,NOTICE OF INTENT,19,Y,Y
280,REQUEST FOR NOTICE AMENDED,19,Y,Y
282,CERTIFICATE OF CANCELLATION OF LAND CONSERVATION CONTRACT,19,Y,Y
283,SUBORDINATION AGREEMENT AMENDED,19,Y,Y
285,ABSTRACT OF JUDGMENT AMENDED,19,Y,Y
286,ASSESSMENT MAP DIAGRAM AMENDED,74,Y,Y
287,NOTICE OF ASSESSMENT LIEN - HOMEOWNERS AMENDED,19,Y,Y
288,PERMIT AMENDED,19,Y,Y
289,CANCELLATION OF LIEN,19,Y,Y
292,NOTICE OF COMPLETION AMENDED,19,Y,Y
293,REVOCATION OF LICENSE,19,Y,Y
297,EXTENSION OF LIEN,46,Y,Y
299,LETTERS OF TESTAMENTARY AMENDED,19,Y,Y
301,UCC FINANCING STATEMENT SUBORDINATION,19,Y,Y
304,CHARTER AMENDED,19,Y,Y
315,NOTICE OF MERGER,19,Y,Y
321,COVENANT AMENDED,19,Y,N
322,CERTIFICATE OF MERGER AMENDED,19,Y,Y
326,LIEN CONTRACT AMENDED,19,Y,Y
329,APPLICATION FOR AND RENEWAL OF JUDGMENT,19,Y,Y
330,REVOCATION OF AGREEMENT,19,Y,Y
331,FICTITIOUS DEED OF TRUST AMENDED,19,Y,Y
332,EXTENSION OF PERMIT,19,Y,Y
333,JUDGMENT REGARDING REAL PROPERTY,19,Y,Y
334,NOTICE OF INTENT TO HOLD CLAIM,19,Y,Y
336,MODIFICATION,19,Y,Y
337,REINSTATEMENT OF DEED OF TRUST,19,Y,Y
338,AGREEMENT REGARDING AFFORDABLE HOUSING,19,Y,Y
339,REVOCATION OF CONDOMINIUM PLAN,19,Y,Y
340,REVOCATION OF ANNEXATION,19,Y,Y
343,BOND AMENDED,19,Y,Y
344,ORDINANCE AMENDED,19,Y,Y
346,BILL OF SALE AMENDED,32,Y,Y
348,PARCEL MAP AMENDED,74,Y,Y
349,GRANT OF RIGHT OF WAY AMENDED,19,Y,Y
350,CANCELLATION OF EASEMENT,19,Y,Y
351,EXTENSION OF OPTION,19,Y,Y
352,NOTICE OF TRANSFER AMENDED,19,Y,Y
356,NOTICE OF DEFAULT AMENDED,52,Y,N
357,POWER OF ATTORNEY AMENDED,19,Y,Y
358,MODIFICATION OF JUDGMENT,19,Y,Y
359,RETROCESSION,19,Y,Y
360,LICENSE AMENDED,19,Y,Y
362,OFFER OF DEDICATION AMENDED,19,Y,Y
363,SUBORDINATION AGREEMENT MODIFICATION,19,Y,Y
367,EXTENSION OF DEED OF TRUST,19,Y,Y
368,EXTENSION OF EASEMENT,19,Y,Y
369,AFFIDAVIT AMENDED,6,Y,N
371,LETTERS OF ADMINISTRATION AMENDED,19,Y,Y
372,CANCELLATION OF DECLARATION OF TRUST,19,Y,Y
374,CANCELLATION OF PERMIT,19,Y,Y
376,AGREEMENT FOR SALE,8,Y,N
383,INDENTURE AMENDED,19,Y,Y
385,ASSIGNMENT OF LIEN,19,Y,Y
388,SEVERANCE OF JOINT TENANCY,19,Y,Y
389,ASSUMPTION AMENDED,19,Y,Y
390,NOTICE OF REASSESSMENT,19,Y,Y
391,SUBORDINATION OF LIEN,19,Y,Y
392,AFFIDAVIT FOR JUSTIFICATION OF BAIL,19,Y,Y
393,LETTERS OF CONSERVATORSHIP AMENDED,19,Y,Y
394,RIGHT OF FIRST REFUSAL AMENDED,19,Y,Y
395,MODIFICATION OF MORTGAGE,19,Y,Y
399,APPLICATION FOR AND RENEWAL OF JUDGMENT AMENDED,19,Y,Y
401,CERTIFICATE OF SALE AMENDED,19,Y,Y
402,AMENDMENT,19,Y,Y
405,NOTICE OF RESTRICTIONS ON REAL PROPERTY,19,Y,Y
406,CERTIFICATE OF COMPLIANCE AMENDED,19,Y,Y
408,ASSESSMENT MAP BOUNDARY AMENDED,74,Y,Y
411,NOTICE OF ATTACHMENT AMENDED,19,Y,Y
412,REVOCATION OF CERTIFICATE OF RELEASE OF FEDERAL TAX LIEN,19,Y,Y
413,ABANDONMENT,19,Y,Y
414,NOTICE OF BANKRUPTCY,19,Y,Y
419,BUILDING CONTRACT AMENDED,19,Y,Y
421,PROCESS SERVER BOND,19,Y,Y
423,PROFESSIONAL PHOTOCOPIERS BOND,19,Y,Y
426,ADDENDUM TO NOTICE OF ASSESSMENT,19,Y,Y
428,TAX LIEN AMENDED,67,Y,Y
429,NOTICE OF CANCELLATION OF SPECIAL TAX LIEN,19,Y,Y
430,ASSIGNMENT OF RENTS AMENDED,19,Y,Y
431,ASSIGNMENT OF LEASE AMENDED,19,Y,Y
432,SUBDIVISION MAP AMENDED,19,Y,Y
433,CERTIFICATE OF COMPLETION,19,Y,Y
434,HISTORIC LANDMARK PROPERTY PRESERVATION AGREEMENT,19,Y,Y
437,NOTICE OF FEDERAL TAX LIEN,19,Y,Y
438,UCC FINANCING STATEMENT CORRECTION,19,Y,Y
441,NOTICE OF STATE TAX LIEN,19,Y,Y
442,NOTICE OF SPECIAL TAX LIEN,19,Y,Y
443,NOTICE OF SPECIAL TAX LIEN AMENDED,19,Y,Y
444,ARTICLES OF ORGANIZATION,19,Y,Y
447,SUBSTITUTION OF PAYEE ON JUDGMENT LIEN,19,Y,Y
448,LEGAL DOCUMENT ASSISTANT BOND,19,Y,Y
449,MODIFICATION OF ASSIGNMENT OF LEASE,19,Y,Y
450,MODIFICATION OF ASSIGNMENT OF RENTS,19,Y,Y
451,NOTICE OF CESSATION OF SPECIAL TAX LIEN,19,Y,Y
453,CERTIFICATION OF TRUST,19,Y,Y
454,MILITARY DISCHARGE,19,Y,Y
455,DISCHARGE,19,Y,Y
456,NOTICE OF SUPPORT JUDGMENT,19,Y,Y
457,AFFIDAVIT OF SUCCESSOR TRUSTEE,6,Y,N
458,CHARTER,19,Y,Y
459,STATEMENT OF HOMEOWNERS ASSOCIATION,19,Y,Y
460,CERTIFICATE OF CONVERSION,19,Y,Y
466,PAYMENT OF TRANSFER FEE REQUIRED,19,Y,Y
467,NOTICE OF FORECLOSING LENDER CONTACT INFORMATION,19,Y,Y
468,RECEIVERS CERTIFICATE,19,Y,Y
469,GOVERNMENT CRIME INSURANCE POLICY,19,Y,Y
471,NOTICE OF REINTERMENT OF NATIVE AMERICAN REMAINS,19,Y,Y
472,PAYMENT OF CONTRACTUAL ASSESSMENT REQUIRED,19,Y,Y
473,EASEMENT VACATION,19,Y,Y
474,CANCELLATION OF SUBSTITUTION OF TRUSTEE,19,Y,Y
476,SITE PLAN,19,Y,Y
477,MISCELLANEOUS MAP AMENDED,74,Y,Y
478,CONSERVATION EASEMENT,19,Y,Y
480,NOTICE OF AFFORDABILITY RESTRICTIONS,19,Y,Y
481,ACKNOWLEDGMENT OF SATISFACTION OF JUDGMENT,19,Y,Y
482,AFFIDAVIT OF DEATH,6,Y,Y
485,CANCELLATION OF NOTICE OF DEFAULT,19,Y,Y
488,GRANT OF LIEN,19,Y,Y
489,MAP TAX CLEARANCE CERTIFICATE,19,Y,Y
494,RESCISSION OF NOTICE OF DEFAULT,19,Y,Y
496,NOTICE OF NON-ADVERSARIAL PROCEDURE,19,Y,Y
498,GRANT OF LIEN AMENDED,19,Y,Y
499,NOTICE OF SUPPORT JUDGMENT AMENDED,19,Y,Y
500,JUDGMENT REGARDING REAL PROPERTY AMENDED,19,Y,Y
502,NOTICE OF DELINQUENCY LIEN AMENDED,19,Y,Y
503,REASSIGNMENT OF DEED OF TRUST,19,Y,Y
504,NOTICE OF ASSESSMENT LIEN - DISTRICT,19,Y,Y
505,NOTICE OF ASSESSMENT LIEN - DISTRICT AMENDED,19,Y,Y
506,ADDENDUM TO NOTICE OF SPECIAL TAX LIEN,19,Y,Y
508,CANCELLATION OF ASSIGNMENT OF LEASE,19,Y,Y
510,REVOCABLE TRANSFER ON DEATH DEED,19,Y,Y
