1. Roll file may have multiple situs addrs

001012016 : last year one char record, this year there are two.  Is this two
            structure or remodel?
            
S_Comm   Expr1
   14059
ADEL  1
AGFR  1380
ARGR  6295
ATAS  10012
AVLB  1022
BKLK  597
CALG  433
CAMB  6048
CARR  1223
CAVA  1346
CAYU  2440
CRES  63
EDNA  697
GARD  115
GROC  4710
HERT  2182
LBER  64
LPIL  1
LSOS  6053
MOBA  5543
NIPO  5119
OAKS  876
OCEANO   2
OCNO  2290
PALM  902
PASO  12108
PISB  4731
POZO  66
RADEL 1731
RELPO 4254
REPLO 1
REST  2008     ?
RHUAS 465
RLPAD 161      ?
RLPIL 571      ?
RNACI 531      ?
RNC   382      ?
RSAL  2567
RSC   2410     ?
RSLB  774      ?
RSLO  1038
SHAR  797
SHAU  416
SLOC  14070
SMARG 2
SMGR  529
SMIG  776
SSIM  239
TEMP  2205
WDLD  305
WHIT  128


REST
CommDesc Expr1
   841
C02   1
CAY01 13
CAY02 834
CAY03 1
LOS04 64
RSL01 231
RTE01 20
U  1
UNK   2

RLPAD
CommDesc Expr1
   64
RCU01 5
RNE01 32
RNP01 1
RSC01 47
RSL01 4
RTE01 6
U  2

RLPIL
CommDesc Expr1
   142
C01   1
C02   3
RNE01 420
RSC01 1
RTE02 2
U  2

RNACI
CommDesc Expr1
   108
C11   1
LAK02 4
RNA01 399
RPR01 1
RTE01 14
U  1
UNK   3

RNC
CommDesc Expr1
   72
C13   8
CAM02 17
RNP01 1
RTE01 276
SIM01 1
U  7

RSC
CommDesc Expr1
   368
LOP01 30
NIP01 168
NIP02 57
NIP03 1111
NIP04 2
NIP05 1
NIPS03   1
NIPS05   123
NIPS06   20
RCU01 1
RNP01 402
RSC01 117
U  5
UNK   4

RSLB
CommDesc Expr1
   153
AVI02 2
AVIS02   1
AVIS03   1
B02   1
EDN01 188
EDN02 153
GEN01 1
LOP01 1
NIP03 94
OCE01 14
RNP01 53
RSC01 16
RSL01 94
U  2

Access Type
-----------
                        	47426
DIRT EASEMENT           	481
DIRT PRIVATE            	987
DIRT PUBLIC             	2242
GRAVEL EASEMENT         	434
GRAVEL PRIVATE          	507
GRAVEL PUBLIC           	1114
LANDLOCKED              	293
NOT DEVELOPED EASEMENT  	104
NOT DEVELOPED PRIVATE   	136
NOT DEVELOPED PUBLIC    	275
PAVED                   	39094
PAVED EASEMENT          	370
PAVED PRIVATE           	2467
PAVED PUBLIC            	41299
SEASONAL                	277
SEASONAL EASEMENT       	28
SEASONAL PRIVATE        	55
SEASONAL PUBLIC         	31
UNKNOWN                 	12983


DOCTYPE

AG
CN
CO
DD
MD
VA
VM
